Forecasting Methods - Final Project
…
The data-generation process is performed by recording the event of CPD responding to a traffic crash. The variation in variable (number of crashes) is reliant on a number of factors - traffic patterns, weather, attention of the rider, road conditions and many more. In my opinion, this is a difficult variable to forecast, owing to the complexity of traffic dynamics and the influence of external factors. Furthermore, having different types of crashes makes it more difficult to predict an identifiable pattern.

Code

accidents <- read.csv("C:\\Users\\kowsa\\Downloads\\cpd_crashes.csv")

accidents$date <- ymd(accidents$date)

accidents_tsbl<- accidents %>%
as_tsibble(index=date) %>%
mutate(date = ymd(accidents$date))

accidents_tsbl

# A tsibble: 365 x 2 [1D]
   date       cpd_crashes
   <date>           <int>
 1 2023-01-01          81
 2 2023-01-02          31
 3 2023-01-03          69
 4 2023-01-04          77
 5 2023-01-05          66
 6 2023-01-06          53
 7 2023-01-07          75
 8 2023-01-08          52
 9 2023-01-09          58
10 2023-01-10          68
# ℹ 355 more rows
…
Code

accidents_tsbl <- accidents_tsbl %>%
mutate(accidents_log = log(cpd_crashes))
accidents_tsbl

# A tsibble: 365 x 3 [1D]
   date       cpd_crashes accidents_log
   <date>           <int>         <dbl>
 1 2023-01-01          81          4.39
 2 2023-01-02          31          3.43
 3 2023-01-03          69          4.23
 4 2023-01-04          77          4.34
 5 2023-01-05          66          4.19
 6 2023-01-06          53          3.97
 7 2023-01-07          75          4.32
 8 2023-01-08          52          3.95
 9 2023-01-09          58          4.06
10 2023-01-10          68          4.22
# ℹ 355 more rows
…
Based on the trend, we can also conclude that it makes more sense to reduce the number of changepoints to changepoint_range=0.9.

Prophet Decomposition

Based on the Prophet decomposition plot, we see that there is some weekly seasonality. Let’s further analyse to identify the seasonal properties of our data.

Code

model = train %>%
    model(prophet = fable.prophet::prophet(accidents_log))

model %>%
components() 

# A dable: 291 x 10 [1D]
# Key:     .model [1]
# :        accidents_log = trend * (1 + multiplicative_terms) + additive_terms
#   + .resid
   .model  date       accidents_log additive_terms multiplicative_terms trend
   <chr>   <date>             <dbl>          <dbl>                <dbl> <dbl>
 1 prophet 2023-01-01          4.39         -0.338                    0  4.35
 2 prophet 2023-01-02          3.43         -0.265                    0  4.35
 3 prophet 2023-01-03          4.23         -0.235                    0  4.35
 4 prophet 2023-01-04          4.34         -0.219                    0  4.35
 5 prophet 2023-01-05          4.19         -0.144                    0  4.36
 6 prophet 2023-01-06          3.97         -0.150                    0  4.36
 7 prophet 2023-01-07          4.32         -0.279                    0  4.36
 8 prophet 2023-01-08          3.95         -0.372                    0  4.36
 9 prophet 2023-01-09          4.06         -0.280                    0  4.36
10 prophet 2023-01-10          4.22         -0.230                    0  4.36
# ℹ 281 more rows
# ℹ 4 more variables: yearly <dbl>, weekly <dbl>, daily <dbl>, .resid <dbl>
…
special_holidays = accidents_tsbl %>%
as_tibble() %>%
filter(accidents_log>1250) %>%
select(-accidents_log) %>%
mutate(holiday = paste('holiday',row_number()))

final_holidays = holidays %>%
bind_rows(special_holidays) %>%
distinct(Date,.keep_all=T) %>%
as_tsibble(index=Date)

final_holidays

# A tsibble: 60 x 4 [1D]
   holiday                    Date       date   cpd_crashes
   <chr>                      <date>     <date>       <int>
 1 New Year's Day             2018-01-01 NA              NA
 2 Martin Luther King Jr. Day 2018-01-15 NA              NA
 3 Presidents' Day            2018-02-19 NA              NA
 4 Memorial Day               2018-05-28 NA              NA
 5 Independence Day           2018-07-04 NA              NA
 6 Labor Day                  2018-09-03 NA              NA
 7 Columbus Day               2018-10-08 NA              NA
 8 Veterans Day               2018-11-12 NA              NA
 9 Thanksgiving               2018-11-22 NA              NA
10 Christmas Day              2018-12-25 NA              NA
# ℹ 50 more rows
…
